{
    "tracks": {
      "href": "https://api.spotify.com/v1/search?query=artist%3Amuse+track%3Abliss&type=track&offset=0&limit=1",
      "items": [
        {
          "album": {
            "album_type": "album",
            "artists": [
              {
                "external_urls": {
                  "spotify": "https://open.spotify.com/artist/12Chz98pHFMPJEknJQMWvI"
                },
                "href": "https://api.spotify.com/v1/artists/12Chz98pHFMPJEknJQMWvI",
                "id": "12Chz98pHFMPJEknJQMWvI",
                "name": "Muse",
                "type": "artist",
                "uri": "spotify:artist:12Chz98pHFMPJEknJQMWvI"
              }
            ],
            "available_markets": [
              "CA",
              "US"
            ],
            "external_urls": {
              "spotify": "https://open.spotify.com/album/1AP6uGYHdakRgwuWQsP5pK"
            },
            "href": "https://api.spotify.com/v1/albums/1AP6uGYHdakRgwuWQsP5pK",
            "id": "1AP6uGYHdakRgwuWQsP5pK",
            "images": [
              {
                "height": 640,
                "url": "https://i.scdn.co/image/ab67616d0000b273a9e6856251d6c4b13167924a",
                "width": 640
              },
              {
                "height": 300,
                "url": "https://i.scdn.co/image/ab67616d00001e02a9e6856251d6c4b13167924a",
                "width": 300
              },
              {
                "height": 64,
                "url": "https://i.scdn.co/image/ab67616d00004851a9e6856251d6c4b13167924a",
                "width": 64
              }
            ],
            "name": "Origin of Symmetry",
            "release_date": "2001",
            "release_date_precision": "year",
            "total_tracks": 12,
            "type": "album",
            "uri": "spotify:album:1AP6uGYHdakRgwuWQsP5pK"
          },
          "artists": [
            {
              "external_urls": {
                "spotify": "https://open.spotify.com/artist/12Chz98pHFMPJEknJQMWvI"
              },
              "href": "https://api.spotify.com/v1/artists/12Chz98pHFMPJEknJQMWvI",
              "id": "12Chz98pHFMPJEknJQMWvI",
              "name": "Muse",
              "type": "artist",
              "uri": "spotify:artist:12Chz98pHFMPJEknJQMWvI"
            }
          ],
          "available_markets": [
            "CA",
            "US"
          ],
          "disc_number": 1,
          "duration_ms": 251146,
          "explicit": false,
          "external_ids": {
            "isrc": "GBCVT0100005"
          },
          "external_urls": {
            "spotify": "https://open.spotify.com/track/09oOhscdjOI4JzxgP9t0x3"
          },
          "href": "https://api.spotify.com/v1/tracks/09oOhscdjOI4JzxgP9t0x3",
          "id": "09oOhscdjOI4JzxgP9t0x3",
          "is_local": false,
          "name": "Bliss",
          "popularity": 40,
          "preview_url": "https://p.scdn.co/mp3-preview/5103b94b531b5a109fc8d9251bfea0049633c467?cid=1f5731eaca9b475bbe138c1a73463bb7",
          "track_number": 2,
          "type": "track",
          "uri": "spotify:track:09oOhscdjOI4JzxgP9t0x3"
        }
      ],
      "limit": 1,
      "next": "https://api.spotify.com/v1/search?query=artist%3Amuse+track%3Abliss&type=track&offset=1&limit=1",
      "offset": 0,
      "previous": null,
      "total": 23
    }
  }